Multivariate XGBoost Model
…
Code

selected_deaths <- read_csv("data/finaldata_selectedfeatures.csv")

3. Train Test Split

Code

selected_deaths <- fill(selected_deaths, everything())

selected_deaths <- replace(selected_deaths, is.na(selected_deaths), 0)
 
naniar::miss_var_summary(selected_deaths)

# A tibble: 93 × 3
   variable                  n_miss pct_miss
   <chr>                      <int>    <dbl>
 1 date                           0        0
 2 dayofweek                      0        0
 3 quarter                        0        0
 4 month                          0        0
 5 dayofyear                      0        0
 6 dayofmonth                     0        0
 7 weekofyear                     0        0
 8 deaths_half_year_lag           0        0
 9 deaths_1_year_lag              0        0
10 deaths_1_andhalf_year_lag      0        0
# ℹ 83 more rows
…
